<svg width="40" height="40" viewBox="0 0 40 40" fill="none" xmlns="http://www.w3.org/2000/svg">
<path d="M15 36.6667C15.9205 36.6667 16.6667 35.9205 16.6667 35C16.6667 34.0795 15.9205 33.3333 15 33.3333C14.0796 33.3333 13.3334 34.0795 13.3334 35C13.3334 35.9205 14.0796 36.6667 15 36.6667Z" stroke="#CDA861" stroke-width="3" stroke-linecap="round" stroke-linejoin="round"/>
<path d="M33.3333 36.6667C34.2538 36.6667 35 35.9205 35 35C35 34.0795 34.2538 33.3333 33.3333 33.3333C32.4128 33.3333 31.6666 34.0795 31.6666 35C31.6666 35.9205 32.4128 36.6667 33.3333 36.6667Z" stroke="#CDA861" stroke-width="3" stroke-linecap="round" stroke-linejoin="round"/>
<path d="M1.66663 1.66666H8.33329L12.8 23.9833C12.9524 24.7506 13.3698 25.4399 13.9792 25.9305C14.5886 26.4211 15.3511 26.6816 16.1333 26.6667H32.3333C33.1155 26.6816 33.878 26.4211 34.4874 25.9305C35.0968 25.4399 35.5142 24.7506 35.6666 23.9833L38.3333 9.99999H9.99996" stroke="#CDA861" stroke-width="3" stroke-linecap="round" stroke-linejoin="round"/>
</svg>
